
COMING
12,26000,522276,DELL_EMC01_DISK_PU,

55,12800,513056,VMWARE_LICENSES_-_,
65,18000,522288,VIRTUAL_FIREWALLS_,
66,80000,522276,DATA_DOMAIN_M&O_AN,

9,632500,522275,DR_01_DISASTER_REC,
ACTUAL CAPEX
9,290000,522275,DR_01_DISASTER_REC,

13,100000,522276,RUBRIK02_GROWTH_ST,
ACTUAL CAPEX
13,462000,522276,RUBRIK02_GROWTH_ST


14,100000,522276,ISILON01_STORAGE_-,
ACTUAL CAPEX
14,477500,522276,ISILON01_STORAGE_-,

##  AOT's SHARE
## 69-ERP_F5_M&O_-_THESE  -Should go away




PAID
53,9565,513056,SPLUNK_,Splunk,LICENSES
54,996.80,516557,NETWRIX_,Netwrix,LICENSES
55,207348,513056,VMWARE_LICENSES_-_,
63,11720,513056,SECRET_SERVER_(FY1,
64,10275,513056,SYMANTEC_ENDPOINT_,
68,1214.39,513031,HP_SERVER_M&O_
69,49581,513040,ERP_F5_M&O_-_THESE,

PAID IN MS EA
56,100000,516557,MICROSOFT_OS_DATAC,

MONTHLY
Should be Ok with Azure.  Waiting to see what happens to the tenant.  We have been blind since June.  We also have new testing?  It costs about $7500/qtr.
60,60000,519081,MICROSOFT_AZURE_

AWS, runs about $1000/month
61,30000,519081,COMM_IAAS_[SERVER],
62,30000,519081,COMM_IAAS_[STORAGE,

CAN CUT OR RE-ADJUST
9,632500,522275,DR_01_DISASTER_REC,
10,250000,522275,SOC-NOC_CLOUD_SHAR,
57,75000,519085,LOGICMONITOR_LICEN
60,60000,519081,MICROSOFT_AZURE_(C,
61,30000,519081,COMM_IAAS_[SERVER],
62,30000,519081,COMM_IAAS_[STORAGE,
65,100000,522288,VIRTUAL_FIREWALLS_,
76,50000,507543,VDI_SUPPORT_C2_-ST
87,30000,519081,ZERTO_TESTING_,

NEED TO ADD 
888,$12754,507543,C2 VXRACK Contract 35223,ENC
999,130000,xxxxxx,AOT-PROCURE,ENC
777,216.00,xxxxxx,ADS PC Hardware