#,budget-item[line],org budget, entry cur total,BAL,Note
1,4-ERP_BUDGET_REDHAT_, 0
  ,4-ERP_BUDGET_REDHAT_, ,NO ENTRIES
  ,BAL, , ,0
2,5-SQL_SERVER_LICENSE, 0
  ,5-SQL_SERVER_LICENSE, ,NO ENTRIES
  ,BAL, , ,0
3,6-TAX_RSA_TOKENS+LIC, 0
  ,6-TAX_RSA_TOKENS+LIC, ,NO ENTRIES
  ,BAL, , ,0
4,7-ORACLE_DB_LICENSES, 0
  ,7-ORACLE_DB_LICENSES, ,NO ENTRIES
  ,BAL, , ,0
5,8-STROMASYS_SA_(SHAR, 0
  ,8-STROMASYS_SA_(SHAR, ,NO ENTRIES
  ,BAL, , ,0
6,9-DR_01_DISASTER_REC, 632500
  ,9-DR_01_DISASTER_REC, ,290000
  ,BAL, , ,342500
,9-DR_01_DISASTER_REC, 290000, ENC
7,10-SOC-NOC_CLOUD_SHAR, 250000
  ,10-SOC-NOC_CLOUD_SHAR, ,250000
  ,BAL, , ,0
,10-SOC-NOC_CLOUD_SHAR, 250000, ENC
8,11-ELASTIC_CAP__CAPAC, 100000
  ,11-ELASTIC_CAP__CAPAC, ,100000
  ,BAL, , ,0
,11-ELASTIC_CAP__CAPAC, 100000, ENC ADJ
9,12-DELL_EMC01_DISK_PU, 4500
  ,12-DELL_EMC01_DISK_PU, ,26000
  ,BAL, , ,-21500
,12-DELL_EMC01_DISK_PU, 26000, ENC
10,13-RUBRIK02_GROWTH_ST, 100000
  ,13-RUBRIK02_GROWTH_ST, ,462000
  ,BAL, , ,-362000
,13-RUBRIK02_GROWTH_ST, 462000, ENC ADJ
11,14-ISILON01_STORAGE_-, 100000
  ,14-ISILON01_STORAGE_-, ,477500
  ,BAL, , ,-377500
,14-ISILON01_STORAGE_-, 477500, ENC ADJ
12,15-SERVER_STAFF_AUG_T, 0
  ,15-SERVER_STAFF_AUG_T, ,NO ENTRIES
  ,BAL, , ,0
13,16-STORAGE_STAFF_AUG_, 130000
  ,16-STORAGE_STAFF_AUG_, ,130000
  ,BAL, , ,0
,16-STORAGE_STAFF_AUG_, 130000, ENC ADJ
14,17-NL_CHASSIS_EXTSUP_, 0
  ,17-NL_CHASSIS_EXTSUP_, ,NO ENTRIES
  ,BAL, , ,0
15,18-ERP_CHASSIS+BLADES, 0
  ,18-ERP_CHASSIS+BLADES, ,NO ENTRIES
  ,BAL, , ,0
16,19-TAX_F5_-REMOVE_TH, 0
  ,19-TAX_F5_-REMOVE_TH, ,NO ENTRIES
  ,BAL, , ,0
17,20-KVM_IP_, 0
  ,20-KVM_IP_, ,NO ENTRIES
  ,BAL, , ,0
18,21-TV_CHASSIS+BLADES_, 13000
  ,21-TV_CHASSIS+BLADES_, ,NO ENTRIES
  ,BAL, , ,0
19,22-VXRACK01_DEPRE__20, 220000
  ,22-VXRACK01_DEPRE__20, ,220000
  ,BAL, , ,0
,22-VXRACK01_DEPRE__20, 220000, DEPR
20,23-RUBRIK01_DEPRE__94, 200000
  ,23-RUBRIK01_DEPRE__94, ,200000
  ,BAL, , ,0
,23-RUBRIK01_DEPRE__94, 200000, DEPR
21,24-HP_20_BLADES_DEPRE, 0
  ,24-HP_20_BLADES_DEPRE, ,NO ENTRIES
  ,BAL, , ,0
22,25-SIMPLIVITY_(MGMT_C, 57000
  ,25-SIMPLIVITY_(MGMT_C, ,NO ENTRIES
  ,BAL, , ,0
23,26-DR_VNX4_DEPRE_DR_P, 0
  ,26-DR_VNX4_DEPRE_DR_P, ,NO ENTRIES
  ,BAL, , ,0
24,27-TV_REMOVE_, 0
  ,27-TV_REMOVE_, ,NO ENTRIES
  ,BAL, , ,0
25,28-DR_PART_OF_TV_VNX5, 0
  ,28-DR_PART_OF_TV_VNX5, ,NO ENTRIES
  ,BAL, , ,0
26,29-NON-DR_PART_OF_TV_, 0
  ,29-NON-DR_PART_OF_TV_, ,NO ENTRIES
  ,BAL, , ,0
27,30-DD2500_DEPRE_(FY15, 40000
  ,30-DD2500_DEPRE_(FY15, ,40000
  ,BAL, , ,0
,30-DD2500_DEPRE_(FY15, 40000, DEPR
28,31-SPILLMAN_SERVERS_D, 6400
  ,31-SPILLMAN_SERVERS_D, ,NO ENTRIES
  ,BAL, , ,0
29,32-DD2500_DEPRE_(FY15, 9000
  ,32-DD2500_DEPRE_(FY15, ,9000
  ,BAL, , ,0
,32-DD2500_DEPRE_(FY15, 9000, DEPR
30,33-TV_FABRIC_DEPRE_-, 5000
  ,33-TV_FABRIC_DEPRE_-, ,5000
  ,BAL, , ,0
,33-TV_FABRIC_DEPRE_-, 5000, DEPR
31,34-ERP_PHYSICAL_PUM_-, 1500
  ,34-ERP_PHYSICAL_PUM_-, ,NO ENTRIES
  ,BAL, , ,0
32,35-ERP_DR_F5_DEPRE_-D, 0
  ,35-ERP_DR_F5_DEPRE_-D, ,NO ENTRIES
  ,BAL, , ,0
33,36-ERP_ASA_DEPRE_TWO_, 0
  ,36-ERP_ASA_DEPRE_TWO_, ,NO ENTRIES
  ,BAL, , ,0
34,37-ERP_DR_ASA_DEPRE_T, 0
  ,37-ERP_DR_ASA_DEPRE_T, ,NO ENTRIES
  ,BAL, , ,0
35,38-ERP_F5_DEPRE_TWO_-, 0
  ,38-ERP_F5_DEPRE_TWO_-, ,NO ENTRIES
  ,BAL, , ,0
36,39-VNX1_MAINT_EXT_(PU, 0
  ,39-VNX1_MAINT_EXT_(PU, ,NO ENTRIES
  ,BAL, , ,0
37,40-VNX2_MAINT_EXT_(PU, 0
  ,40-VNX2_MAINT_EXT_(PU, ,NO ENTRIES
  ,BAL, , ,0
38,41-TV_CHASSIS+BLADES_, 0
  ,41-TV_CHASSIS+BLADES_, ,NO ENTRIES
  ,BAL, , ,0
39,42-VDI_EQUIP_DEPRE_C, 0
  ,42-VDI_EQUIP_DEPRE_C, ,NO ENTRIES
  ,BAL, , ,0
40,43-VDI_FABRIC_DEPRE_(, 0
  ,43-VDI_FABRIC_DEPRE_(, ,NO ENTRIES
  ,BAL, , ,0
41,44-VDI_VNX_DEPRE_(FY1, 0
  ,44-VDI_VNX_DEPRE_(FY1, ,NO ENTRIES
  ,BAL, , ,0
42,45-DD670_DEPRE_EXPANS, 0
  ,45-DD670_DEPRE_EXPANS, ,NO ENTRIES
  ,BAL, , ,0
43,46-DD01_DD670_MAINT_(, 0
  ,46-DD01_DD670_MAINT_(, ,NO ENTRIES
  ,BAL, , ,0
44,47-DD02_DD670_MAINT_(, 0
  ,47-DD02_DD670_MAINT_(, ,NO ENTRIES
  ,BAL, , ,0
45,48-MANAGEMENT_VNXE_DE, 0
  ,48-MANAGEMENT_VNXE_DE, ,NO ENTRIES
  ,BAL, , ,0
46,49-VNX1_DEPRE_FY15_EX, 0
  ,49-VNX1_DEPRE_FY15_EX, ,NO ENTRIES
  ,BAL, , ,0
47,50-VNX2_DEPRE_FY15_EX, 0
  ,50-VNX2_DEPRE_FY15_EX, ,NO ENTRIES
  ,BAL, , ,0
48,51-ERP_NL_EVA_MAINTEN, 0
  ,51-ERP_NL_EVA_MAINTEN, ,NO ENTRIES
  ,BAL, , ,0
49,52-MS_SQL_LICENSES_-_, 20000
  ,52-MS_SQL_LICENSES_-_, ,NO ENTRIES
  ,BAL, , ,0
50,53-SPLUNK_, 10075
  ,53-SPLUNK_, ,NO ENTRIES
  ,BAL, , ,0
51,54-NETWRIX_, 1200
  ,54-NETWRIX_, ,NO ENTRIES
  ,BAL, , ,0
52,55-VMWARE_LICENSES_-_, 225000
  ,55-VMWARE_LICENSES_-_, ,220148
  ,BAL, , ,4852
,55-VMWARE_LICENSES_-_, 207348, PAID
,55-VMWARE_LICENSES_-_, 12800, ENC
53,56-MICROSOFT_OS_DATAC, 100000
  ,56-MICROSOFT_OS_DATAC, ,NO ENTRIES
  ,BAL, , ,0
54,57-LOGICMONITOR_LICEN, 75000
  ,57-LOGICMONITOR_LICEN, ,NO ENTRIES
  ,BAL, , ,0
55,58-VERITAS_NETBACKUP_, 0
  ,58-VERITAS_NETBACKUP_, ,NO ENTRIES
  ,BAL, , ,0
56,59-EXISTING_POWERPATH, 0
  ,59-EXISTING_POWERPATH, ,NO ENTRIES
  ,BAL, , ,0
57,60-MICROSOFT_AZURE_(C, 60000
  ,60-MICROSOFT_AZURE_(C, ,NO ENTRIES
  ,BAL, , ,0
58,61-COMM_IAAS_[SERVER], 30000
  ,61-COMM_IAAS_[SERVER], ,NO ENTRIES
  ,BAL, , ,0
59,62-COMM_IAAS_[STORAGE, 30000
  ,62-COMM_IAAS_[STORAGE, ,NO ENTRIES
  ,BAL, , ,0
60,63-SECRET_SERVER_(FY1, 10750
  ,63-SECRET_SERVER_(FY1, ,NO ENTRIES
  ,BAL, , ,0
61,64-SYMANTEC_ENDPOINT_, 11250
  ,64-SYMANTEC_ENDPOINT_, ,NO ENTRIES
  ,BAL, , ,0
62,65-VIRTUAL_FIREWALLS_, 100000
  ,65-VIRTUAL_FIREWALLS_, ,18000
  ,BAL, , ,82000
,65-VIRTUAL_FIREWALLS_, 18000, ENC
63,66-DATA_DOMAIN_M&O_AN, 60000
  ,66-DATA_DOMAIN_M&O_AN, ,80000
  ,BAL, , ,-20000
,66-DATA_DOMAIN_M&O_AN, 80000, ENC
64,67-EMC_VNX_MAINTENANC, 132000
  ,67-EMC_VNX_MAINTENANC, ,NO ENTRIES
  ,BAL, , ,0
65,68-HP_SERVER_M&O_, 75000
  ,68-HP_SERVER_M&O_, ,1214.39
  ,BAL, , ,73785.61
,68-HP_SERVER_M&O_, 1214.39, PAID
66,69-ERP_F5_M&O_-_THESE, 23000
  ,69-ERP_F5_M&O_-_THESE, ,49581
  ,BAL, , ,-26581
,69-ERP_F5_M&O_-_THESE, 49581, PAID
67,70-NETBACKUP_SERVERS_, 0
  ,70-NETBACKUP_SERVERS_, ,NO ENTRIES
  ,BAL, , ,0
68,71-TAPEDRIVE_(PLANNED, 0
  ,71-TAPEDRIVE_(PLANNED, ,NO ENTRIES
  ,BAL, , ,0
69,72-REPLACE_ERP_ASAS/F, 0
  ,72-REPLACE_ERP_ASAS/F, ,NO ENTRIES
  ,BAL, , ,0
70,73-TV_DATACENTER_NETW, 0
  ,73-TV_DATACENTER_NETW, ,NO ENTRIES
  ,BAL, , ,0
71,74-MGMT_3750_STACK_AT, 0
  ,74-MGMT_3750_STACK_AT, ,NO ENTRIES
  ,BAL, , ,0
72,75-MGMT_ASAS_AT_TV_(P, 0
  ,75-MGMT_ASAS_AT_TV_(P, ,NO ENTRIES
  ,BAL, , ,0
73,76-VDI_SUPPORT_C2_-ST, 50000
  ,76-VDI_SUPPORT_C2_-ST, ,NO ENTRIES
  ,BAL, , ,0
74,77-DD670_EXPANSION_(F, 0
  ,77-DD670_EXPANSION_(F, ,NO ENTRIES
  ,BAL, , ,0
75,78-NL_DATACENTER_NETW, 0
  ,78-NL_DATACENTER_NETW, ,NO ENTRIES
  ,BAL, , ,0
76,79-REPLACE_ERP_ASAS/F, 0
  ,79-REPLACE_ERP_ASAS/F, ,NO ENTRIES
  ,BAL, , ,0
77,80-TV_DATACENTER_NETW, 0
  ,80-TV_DATACENTER_NETW, ,NO ENTRIES
  ,BAL, , ,0
78,81-ADDITIONAL_POWERPA, 0
  ,81-ADDITIONAL_POWERPA, ,NO ENTRIES
  ,BAL, , ,0
79,82-NL_FAB_EXTSUP__EXT, 0
  ,82-NL_FAB_EXTSUP__EXT, ,NO ENTRIES
  ,BAL, , ,0
80,83-DPS_FAB_EXTSUP__EX, 0
  ,83-DPS_FAB_EXTSUP__EX, ,NO ENTRIES
  ,BAL, , ,0
81,84-VDI_VNX_(FY14_OR_L, 10000
  ,84-VDI_VNX_(FY14_OR_L, ,NO ENTRIES
  ,BAL, , ,0
82,85-TV_DC_SRV_30%_SPAC, 104040
  ,85-TV_DC_SRV_30%_SPAC, ,NO ENTRIES
  ,BAL, , ,0
83,86-TV_DC_STRG_20%_SPA, 69360
  ,86-TV_DC_STRG_20%_SPA, ,NO ENTRIES
  ,BAL, , ,0
84,87-ZERTO_TESTING_, 30000
  ,87-ZERTO_TESTING_, ,NO ENTRIES
  ,BAL, , ,0
85,88-ESXI_HOSTS_M&O_FUN, 0
  ,88-ESXI_HOSTS_M&O_FUN, ,NO ENTRIES
  ,BAL, , ,0
86,89-NL_DC_STR_20__DATA, 33600
  ,89-NL_DC_STR_20__DATA, ,NO ENTRIES
  ,BAL, , ,0
87,90-ESSEX_OFFICE_SPACE, 3000
  ,90-ESSEX_OFFICE_SPACE, ,NO ENTRIES
  ,BAL, , ,0
88,91-NL_DC_SRV_40__DATA, 67200
  ,91-NL_DC_SRV_40__DATA, ,NO ENTRIES
  ,BAL, , ,0
89,92-VNX_M&O_VNX01__VNX, 0
  ,92-VNX_M&O_VNX01__VNX, ,NO ENTRIES
  ,BAL, , ,0
90,93-DPS_DEDICATED_EQUI, 0
  ,93-DPS_DEDICATED_EQUI, ,NO ENTRIES
  ,BAL, , ,0
91,777-ADS PC Hardware, 2000
  ,777-ADS PC Hardware, ,NO ENTRIES
  ,BAL, , ,0
92,888-ADJ_C2 VXRACK Contract 35223, 12754
  ,888-ADJ_C2 VXRACK Contract 35223, ,NO ENTRIES
  ,BAL, , ,0
93,999-AOT-PROCURE Budget, 130000
  ,999-AOT-PROCURE Budget, ,NO ENTRIES
  ,BAL, , ,0
 ,  ,3344129, ,-304443.39
