1,10-SOC-NOC_CLOUD_SHAR, 250000,250000,0
 ,10,250000,522275,SOC-NOC_CLOUD_SHAR,ENC
2,11-ELASTIC_CAP__CAPAC, 100000,100000,0
 ,11,100000,522275,ELASTIC_CAP__CAPAC,ENC ADJ
3,12-DELL_EMC01_DISK_PU, 4500,26000,-21500
 ,12,26000,522276,DELL_EMC01_DISK_PU,ENC
4,13-RUBRIK02_GROWTH_ST, 100000,462000,-362000
 ,13,462000,522276,RUBRIK02_GROWTH_ST,ENC ADJ
5,14-ISILON01_STORAGE_-, 100000,477500,-377500
 ,14,477500,522276,ISILON01_STORAGE_-,ENC ADJ
6,15-SERVER_STAFF_AUG_T, 0,,0,0,NO ENTRIES
7,16-STORAGE_STAFF_AUG_, 130000,130000,0
 ,16,130000,507543,STORAGE_STAFF_AUG_,ENC ADJ
8,17-NL_CHASSIS_EXTSUP_, 0,,0,0,NO ENTRIES
9,18-ERP_CHASSIS+BLADES, 0,,0,0,NO ENTRIES
10,19-TAX_F5_-REMOVE_TH, 0,,0,0,NO ENTRIES
11,20-KVM_IP_, 0,,0,0,NO ENTRIES
12,21-TV_CHASSIS+BLADES_, 13000,,0,0,NO ENTRIES
13,22-VXRACK01_DEPRE__20, 220000,,0,0,NO ENTRIES
14,23-RUBRIK01_DEPRE__94, 200000,,0,0,NO ENTRIES
15,24-HP_20_BLADES_DEPRE, 0,,0,0,NO ENTRIES
16,25-SIMPLIVITY_(MGMT_C, 57000,,0,0,NO ENTRIES
17,26-DR_VNX4_DEPRE_DR_P, 0,,0,0,NO ENTRIES
18,27-TV_REMOVE_, 0,,0,0,NO ENTRIES
19,28-DR_PART_OF_TV_VNX5, 0,,0,0,NO ENTRIES
20,29-NON-DR_PART_OF_TV_, 0,,0,0,NO ENTRIES
21,30-DD2500_DEPRE_(FY15, 40000,,0,0,NO ENTRIES
22,31-SPILLMAN_SERVERS_D, 6400,,0,0,NO ENTRIES
23,32-DD2500_DEPRE_(FY15, 9000,,0,0,NO ENTRIES
24,33-TV_FABRIC_DEPRE_-, 5000,,0,0,NO ENTRIES
25,34-ERP_PHYSICAL_PUM_-, 1500,,0,0,NO ENTRIES
26,35-ERP_DR_F5_DEPRE_-D, 0,,0,0,NO ENTRIES
27,36-ERP_ASA_DEPRE_TWO_, 0,,0,0,NO ENTRIES
28,37-ERP_DR_ASA_DEPRE_T, 0,,0,0,NO ENTRIES
29,38-ERP_F5_DEPRE_TWO_-, 0,,0,0,NO ENTRIES
30,39-VNX1_MAINT_EXT_(PU, 0,,0,0,NO ENTRIES
31,4-ERP_BUDGET_REDHAT_, 0,,0,0,NO ENTRIES
32,40-VNX2_MAINT_EXT_(PU, 0,,0,0,NO ENTRIES
33,41-TV_CHASSIS+BLADES_, 0,,0,0,NO ENTRIES
34,42-VDI_EQUIP_DEPRE_C, 0,,0,0,NO ENTRIES
35,43-VDI_FABRIC_DEPRE_(, 0,,0,0,NO ENTRIES
36,44-VDI_VNX_DEPRE_(FY1, 0,,0,0,NO ENTRIES
37,45-DD670_DEPRE_EXPANS, 0,,0,0,NO ENTRIES
38,46-DD01_DD670_MAINT_(, 0,,0,0,NO ENTRIES
39,47-DD02_DD670_MAINT_(, 0,,0,0,NO ENTRIES
40,48-MANAGEMENT_VNXE_DE, 0,,0,0,NO ENTRIES
41,49-VNX1_DEPRE_FY15_EX, 0,,0,0,NO ENTRIES
42,5-SQL_SERVER_LICENSE, 0,,0,0,NO ENTRIES
43,50-VNX2_DEPRE_FY15_EX, 0,,0,0,NO ENTRIES
44,51-ERP_NL_EVA_MAINTEN, 0,,0,0,NO ENTRIES
45,52-MS_SQL_LICENSES_-_, 20000,,0,0,NO ENTRIES
46,53-SPLUNK_, 10075,9565,510
 ,53,9565,513056,SPLUNK_,Splunk,LICENSES,PAID
47,54-NETWRIX_, 1200,996.80,203.2
 ,54,996.80,516557,NETWRIX_,Netwrix,LICENSES,PAID
48,55-VMWARE_LICENSES_-_, 225000,220148,4852
 ,55,207348,513056,VMWARE_LICENSES_-_,PAID
 ,,55,12800,513056,VMWARE_LICENSES_-_,ENC
49,56-MICROSOFT_OS_DATAC, 100000,,0,0,NO ENTRIES
50,57-LOGICMONITOR_LICEN, 75000,,0,0,NO ENTRIES
51,58-VERITAS_NETBACKUP_, 0,,0,0,NO ENTRIES
52,59-EXISTING_POWERPATH, 0,,0,0,NO ENTRIES
53,6-TAX_RSA_TOKENS+LIC, 0,,0,0,NO ENTRIES
54,60-MICROSOFT_AZURE_(C, 60000,,0,0,NO ENTRIES
55,61-COMM_IAAS_[SERVER], 30000,,0,0,NO ENTRIES
56,62-COMM_IAAS_[STORAGE, 30000,,0,0,NO ENTRIES
57,63-SECRET_SERVER_(FY1, 10750,11720,-970
 ,63,11720,513056,SECRET_SERVER_(FY1,PAID
58,64-SYMANTEC_ENDPOINT_, 11250,10275,975
 ,64,10275,513056,SYMANTEC_ENDPOINT_,PAID
59,65-VIRTUAL_FIREWALLS_, 100000,18000,82000
 ,65,18000,522288,VIRTUAL_FIREWALLS_,ENC
60,66-DATA_DOMAIN_M&O_AN, 60000,80000,-20000
 ,66,80000,522276,DATA_DOMAIN_M&O_AN,ENC
61,67-EMC_VNX_MAINTENANC, 132000,,0,0,NO ENTRIES
62,68-HP_SERVER_M&O_, 75000,1214.39,73785.61
 ,68,1214.39,513031,HP_SERVER_M&O_,PAID
63,69-ERP_F5_M&O_-_THESE, 23000,49581,-26581
 ,69,49581,513040,ERP_F5_M&O_-_THESE,PAID
64,7-ORACLE_DB_LICENSES, 0,,0,0,NO ENTRIES
65,70-NETBACKUP_SERVERS_, 0,,0,0,NO ENTRIES
66,71-TAPEDRIVE_(PLANNED, 0,,0,0,NO ENTRIES
67,72-REPLACE_ERP_ASAS/F, 0,,0,0,NO ENTRIES
68,73-TV_DATACENTER_NETW, 0,,0,0,NO ENTRIES
69,74-MGMT_3750_STACK_AT, 0,,0,0,NO ENTRIES
70,75-MGMT_ASAS_AT_TV_(P, 0,,0,0,NO ENTRIES
71,76-VDI_SUPPORT_C2_-ST, 50000,,0,0,NO ENTRIES
72,77-DD670_EXPANSION_(F, 0,,0,0,NO ENTRIES
73,78-NL_DATACENTER_NETW, 0,,0,0,NO ENTRIES
74,79-REPLACE_ERP_ASAS/F, 0,,0,0,NO ENTRIES
75,8-STROMASYS_SA_(SHAR, 0,,0,0,NO ENTRIES
76,80-TV_DATACENTER_NETW, 0,,0,0,NO ENTRIES
77,81-ADDITIONAL_POWERPA, 0,,0,0,NO ENTRIES
78,82-NL_FAB_EXTSUP__EXT, 0,,0,0,NO ENTRIES
79,83-DPS_FAB_EXTSUP__EX, 0,,0,0,NO ENTRIES
80,84-VDI_VNX_(FY14_OR_L, 10000,,0,0,NO ENTRIES
81,85-TV_DC_SRV_30%_SPAC, 104040,,0,0,NO ENTRIES
82,86-TV_DC_STRG_20%_SPA, 69360,,0,0,NO ENTRIES
83,87-ZERTO_TESTING_, 30000,,0,0,NO ENTRIES
84,88-ESXI_HOSTS_M&O_FUN, 0,,0,0,NO ENTRIES
85,89-NL_DC_STR_20__DATA, 33600,,0,0,NO ENTRIES
86,9-DR_01_DISASTER_REC, 632500,290000,342500
 ,9,290000,522275,DR_01_DISASTER_REC,ENC
87,90-ESSEX_OFFICE_SPACE, 3000,,0,0,NO ENTRIES
88,91-NL_DC_SRV_40__DATA, 67200,,0,0,NO ENTRIES
89,92-VNX_M&O_VNX01__VNX, 0,,0,0,NO ENTRIES
90,93-DPS_DEDICATED_EQUI, 0,,0,0,NO ENTRIES
 ,  ,3199375, ,-303725.19
